//id	name	types_amount	types	amount	unknown
1	Dispersion Bullet Path of Fligh	1	11	15	0
2	Dual Shot Path of Flight	3	10,25,26	1,1,1	1
3	Spiritual Bolt Path of Flight	3	21,37,38	1,1,1	1
4	Poison Dart Path of Flight	2	39,39	1,1	1