//id	name	unknown1	unknown2	unknown3	unknown4	unknown5	unknown6	unknown7	unknown8
1	Switching point	1	1	200	399	147	468	9	0
2	Anchored Ship	2	1	200	399	147	0	10	2
3	Incident investigation	2	1	0	0	0	0	19	0
4	Switching Point (Sea)	1	1	200	399	147	494	9	2