1	#RESOURCE_CHARACTERINFO_TXT_000375#	1	804	0	61653,96548	61653,96548	43	#CALCULATE_ITEMEFFECT_LUA_000072#	103	0	l_talk04	0
2	#RESOURCE_CHARACTERINFO_TXT_000370#	1	798	0	104250,13477	104250,13477	114	#RESOURCE_AREASET_TXT_000068#	102	0	l_talk03	0
3	#MISSCRIPT_MISSIONSCRIPT02_LUA_001460#	1	802	0	23088,57990	23088,57990	355	#RESOURCE_AREASET_TXT_000067#	101	0	l_talk02	0
4	#MISSCRIPT_MISSIONSCRIPT02_LUA_001466#	1	803	0	51611,40767	51611,40767	301	#RESOURCE_AREASET_TXT_000067#	101	0	l_talk01	0
5	#JIALEBI_JIALEBINPC_TXT_000001#	1	803	9	63133,92771	63133,92771	180	#CALCULATE_ITEMEFFECT_LUA_000072#	103	0	mmm_talk05	0
6	#JIALEBI_JIALEBINPC_TXT_000002#	1	452	9	65815,99328	65815,99328	180	#CALCULATE_ITEMEFFECT_LUA_000072#	103	0	mmm_talk06	0
7	#JIALEBI_JIALEBINPC_TXT_000003#	1	452	9	61212,62222	61212,62222	128	#RESOURCE_AREASET_TXT_000067#	101	0	mmm_talk07	0
8	#JIALEBI_JIALEBINPC_TXT_000004#	1	452	9	37011,16511	37011,16511	250	#RESOURCE_AREASET_TXT_000067#	101	0	mmm_talk08	0
9	#JIALEBI_JIALEBINPC_TXT_000005#	1	453	9	108211,21111	108211,21111	250	#RESOURCE_AREASET_TXT_000068#	102	0	mmm_talk09	0
10	#JIALEBI_JIALEBINPC_TXT_000006#	1	459	9	61267,94517	61267,94517	145	#CALCULATE_ITEMEFFECT_LUA_000072#	103	0	mmm_talk10	0
11	#JIALEBI_JIALEBINPC_TXT_000007#	1	190	7	69076,104321	69076,104321	30	#CALCULATE_ITEMEFFECT_LUA_000072#	103	0	mmm_talk11	0
12	#JIALEBI_JIALEBINPC_TXT_000008#	1	429	7	47411,105411	47411,105411	236	#CALCULATE_ITEMEFFECT_LUA_000072#	103	0	mmm_talk12	0
13	#JIALEBI_JIALEBINPC_TXT_000009#	1	425	0	100010,27166	100010,27166	30	#RESOURCE_AREASET_TXT_000068#	103	0	mmm_talk13	0
14	#JIALEBI_JIALEBINPC_TXT_000010#	1	421	0	99622,26577	99622,26577	-163	#RESOURCE_AREASET_TXT_000068#	103	0	mmm_talk14	0
15	#JIALEBI_JIALEBINPC_TXT_000011#	1	19	0	98934,26958	98934,26958	30	#RESOURCE_AREASET_TXT_000068#	103	0	mmm_talk15	0
16	#JIALEBI_JIALEBINPC_TXT_000012#	1	401	7	107632,13732	107632,13732	166	#RESOURCE_AREASET_TXT_000070#	103	0	mmm_talk16	0
17	#JIALEBI_JIALEBINPC_TXT_000013#	1	423	7	97429,83023	97429,83023	88	#RESOURCE_AREASET_TXT_000070#	105	0	mmm_talk17	0
18	#JIALEBI_JIALEBINPC_TXT_000014#	1	429	7	97429,90675	97429,90675	88	#RESOURCE_AREASET_TXT_000070#	105	0	mmm_talk18	0
19	#JIALEBI_JIALEBINPC_TXT_000015#	1	423	7	97429,99375	97429,99375	88	#RESOURCE_AREASET_TXT_000070#	105	0	mmm_talk19	0
20	#JIALEBI_JIALEBINPC_TXT_000016#	1	423	7	125285,100575	125285,100575	95	#RESOURCE_AREASET_TXT_000069#	104	0	mmm_talk20	0
22	#JIALEBI_JIALEBINPC_TXT_000017#	1	423	7	19927,82473	19927,82473	90	#CALCULATE_EXP_AND_LEVEL_LUA_000022#	107	0	mmm_talk22	0
23	#JIALEBI_JIALEBINPC_TXT_000018#	1	424	7	9073,81628	9073,81628	200	#CALCULATE_EXP_AND_LEVEL_LUA_000023#	107	0	mmm_talk23	0
24	#JIALEBI_JIALEBINPC_TXT_000019#	1	425	7	7076,95272	7076,95272	42	#CALCULATE_EXP_AND_LEVEL_LUA_000024#	107	0	mmm_talk24	0
25	#JIALEBI_JIALEBINPC_TXT_000020#	1	425	7	20913,95571	20913,95571	42	#CALCULATE_EXP_AND_LEVEL_LUA_000025#	107	0	mmm_talk25	0
26	#JIALEBI_JIALEBINPC_TXT_000021#	1	425	0	113811,26111	113811,26111	30	#RESOURCE_AREASET_TXT_000068#	103	0	mmm_talk26	0
27	#JIALEBI_JIALEBINPC_TXT_000022#	1	421	0	112811,26811	112811,26811	-163	#RESOURCE_AREASET_TXT_000068#	103	0	mmm_talk27	0
28	#JIALEBI_JIALEBINPC_TXT_000023#	1	19	0	113311,26711	113311,26711	30	#RESOURCE_AREASET_TXT_000068#	103	0	mmm_talk28	0
29	#MISSCRIPT_MISSIONSCRIPT02_LUA_001489#	1	262	7	175520,90875	175520,90875	269	#RESOURCE_AREASET_TXT_000072#	103	0	mmm_talk30	0
30	#JIALEBI_JIALEBINPC_TXT_000024#	1	284	7	175440,91479	175440,91479	310	#RESOURCE_AREASET_TXT_000072#	103	0	zsts_talk	0
32	#JIALEBI_JIALEBINPC_TXT_000025#	1	829	0	15400,91200	15400,91200	150	#CALCULATE_EXP_AND_LEVEL_LUA_000025#	107	0	el_talk23	0
33	#MISSCRIPT_MISSIONSCRIPT02_LUA_001477#	1	772	0	66900,106400	66900,106400	43	#CALCULATE_ITEMEFFECT_LUA_000072#	103	0	k_talk002	0
34	#JIALEBI_JIALEBINPC_TXT_000026#	1	1064	7	174940,91479	174940,91479	310	#RESOURCE_AREASET_TXT_000072#	103	0	k_talk003	0
35	#JIALEBI_JIALEBINPC_TXT_000027#	1	23	7	174940,90279	174940,90279	230	#RESOURCE_AREASET_TXT_000072#	103	0	dina_talk10	0
36	#RESOURCE_ITEMINFO_TXT_002553#	1	284	7	175440,90279	175440,90279	230	#RESOURCE_AREASET_TXT_000072#	103	0	dina_talk11	0
