0	#GARNER_GARNERNPC_TXT_000001#	1	11	7	218700,277600	218700,277600	180	#BIRTH_BIRTH_CONF_LUA_000001#	1	0	GoToWhere	0
1	#MISSCRIPT_MISSIONSCRIPT01_LUA_000201#	1	14	0	221925,274925	221925,274925	180	#BIRTH_BIRTH_CONF_LUA_000001#	1	0	r_talk01	r_npcstate01
2	#MISSCRIPT_MISSIONSCRIPT01_LUA_000211#	1	20	1	219312,270612	219312,270612	114	#BIRTH_BIRTH_CONF_LUA_000001#	1	0	r_trade01	0
3	#MISSCRIPT_MISSIONSCRIPT02_LUA_000227#	1	5	0	219220,276700	219220,276700	90	#BIRTH_BIRTH_CONF_LUA_000001#	1	0	r_talk86	0
4	#MISSCRIPT_NPCDEFINE_LUA_000002#	1	28	0	227930,274654	227930,274654	84	#BIRTH_BIRTH_CONF_LUA_000001#	1	0	r_talk08	0
5	#MISSCRIPT_MISSIONSCRIPT02_LUA_000237#	1	18	0	227725,276925	227725,276925	180	#BIRTH_BIRTH_CONF_LUA_000001#	1	0	r_talk02	r_npcstate02
6	#MISSCRIPT_MISSIONSCRIPT03_LUA_000032#	1	425	0	219350,273050	219350,273050	90	#BIRTH_BIRTH_CONF_LUA_000001#	1	0	r_talk06	0
7	#MISSCRIPT_NPCDEFINE_LUA_000004#	1	17	4	233107,282194	233107,282194	234	#BIRTH_BIRTH_CONF_LUA_000001#	1	0	r_talk10	0
8	#MISSCRIPT_MISSIONSCRIPT01_LUA_000190#	1	17	11	225075,277025	225075,277025	180	#BIRTH_BIRTH_CONF_LUA_000001#	1	0	r_talk03	r_npcstate03
9	#MISSCRIPT_NPCDEFINE_LUA_000005#	1	16	0	222050,270400	222050,270400	180	#BIRTH_BIRTH_CONF_LUA_000001#	1	0	r_talk13	0
10	#GARNER_GARNERNPC_TXT_000002#	1	13	0	221150,278125	221150,278125	180	#BIRTH_BIRTH_CONF_LUA_000001#	1	0	r_talk09	0
11	#MISSCRIPT_NPCDEFINE_LUA_000007#	1	421	0	222629,272668	222629,272668	219	#BIRTH_BIRTH_CONF_LUA_000001#	1	0	r_talk11	0
12	#MISSCRIPT_MISSIONSCRIPT01_LUA_000270#	1	410	0	221925,291131	221925,291131	179	#BIRTH_BIRTH_CONF_LUA_000001#	1	0	r_talk12	0
13	#MISSCRIPT_MISSIONSCRIPT02_LUA_000012#	1	416	0	227789,283199	227789,283199	84	#BIRTH_BIRTH_CONF_LUA_000001#	1	0	r_talk14	0
14	#MISSCRIPT_NPCDEFINE_LUA_000008#	1	29	3	224487,277032	224487,277032	180	#BIRTH_BIRTH_CONF_LUA_000001#	1	0	r_talk04	r_npcstate04
15	#MISSCRIPT_NPCDEFINE_LUA_000009#	1	416	0	225648,270640	225648,270640	180	#BIRTH_BIRTH_CONF_LUA_000001#	1	0	r_talk15	0
16	#GARNER_GARNERNPC_TXT_000003#	1	415	0	224156,274843	224156,274843	264	#BIRTH_BIRTH_CONF_LUA_000001#	1	0	r_talk16	0
17	#MISSCRIPT_MISSIONSCRIPT02_LUA_000191#	1	420	0	227208,270036	227208,270036	180	#BIRTH_BIRTH_CONF_LUA_000001#	1	0	r_talk17	0
18	#MISSCRIPT_NPCDEFINE_LUA_000011#	1	17	12	223200,272900	223200,272900	175	#BIRTH_BIRTH_CONF_LUA_000001#	1	0	r_talk07	0
19	#MISSCRIPT_NPCDEFINE_LUA_000012#	1	18	2	226781,270475	226781,270475	180	#BIRTH_BIRTH_CONF_LUA_000001#	1	0	BT_NpcSale001	0
20	#MISSCRIPT_MISSIONSCRIPT01_LUA_000263#	1	16	0	224075,275275	224075,275275	270	#BIRTH_BIRTH_CONF_LUA_000001#	1	0	r_talk18	0
21	#MISSCRIPT_MISSIONSCRIPT01_LUA_000046#	1	11	15	222375,278525	222375,278525	180	#BIRTH_BIRTH_CONF_LUA_000001#	1	0	BT_NewUser001	BT_State002
22	#MISSCRIPT_NPCDEFINE_LUA_000013#	1	11	0	222499,288750	222499,288750	264	#BIRTH_BIRTH_CONF_LUA_000001#	1	0	r_talk05	0
23	#GARNER_GARNERNPC_TXT_000004#	1	402	0	221588,282819	221588,282819	219	#BIRTH_BIRTH_CONF_LUA_000001#	1	0	r_talk19	0
24	#HELP_ADDHELPNPC_LUA_000001#	1	10	0	222270,288954	222270,288954	54	#BIRTH_BIRTH_CONF_LUA_000001#	1	0	r_talk20	0
25	#MISSCRIPT_MISSIONSCRIPT02_LUA_000022#	1	414	0	196225,269425	196225,269425	115	#RESOURCE_AREASET_TXT_000002#	3	0	r_talk21	0
26	#MISSCRIPT_NPCDEFINE_LUA_000014#	1	429	0	173269,278261	173269,278261	189	#RESOURCE_AREASET_TXT_000002#	3	0	r_talk22	0
27	#MISSCRIPT_NPCDEFINE_LUA_000015#	1	10	0	229833,252025	229833,252025	89	#RESOURCE_AREASET_TXT_000002#	3	0	r_talk23	0
28	#GARNER_GARNERNPC_TXT_000005#	1	417	0	71350,141619	71350,141619	174	#BIRTH_BIRTH_CONF_LUA_000002#	8	0	r_talk24	0
29	#MISSCRIPT_NPCDEFINE_LUA_000017#	1	413	0	99089,126306	99089,126306	84	#BIRTH_BIRTH_CONF_LUA_000027#	10	0	r_talk25	0
30	#MISSCRIPT_NPCDEFINE_LUA_000018#	1	410	0	108330,128563	108330,128563	54	#BIRTH_BIRTH_CONF_LUA_000027#	10	0	r_talk26	0
31	#MISSCRIPT_NPCDEFINE_LUA_000019#	1	17	4	100321,130662	100321,130662	54	#BIRTH_BIRTH_CONF_LUA_000027#	10	0	r_talk27	0
32	#MISSCRIPT_NPCDEFINE_LUA_000020#	1	406	3	77300,154900	77300,154900	270	#BIRTH_BIRTH_CONF_LUA_000002#	8	0	r_talk28	0
33	#MISSCRIPT_NPCDEFINE_LUA_000021#	1	24	0	74300,153400	74300,153400	225	#BIRTH_BIRTH_CONF_LUA_000002#	8	0	r_talk29	0
34	#MISSCRIPT_NPCDEFINE_LUA_000022#	1	22	1	76662,144769	76662,144769	-94	#BIRTH_BIRTH_CONF_LUA_000002#	8	0	r_talk30	0
35	#MISSCRIPT_NPCDEFINE_LUA_000023#	1	11	0	74026,145143	74026,145143	189	#BIRTH_BIRTH_CONF_LUA_000002#	8	0	r_talk31	0
36	#GARNER_GARNERNPC_TXT_000006#	1	416	0	71220,150827	71220,150827	174	#BIRTH_BIRTH_CONF_LUA_000002#	8	0	r_talk32	0
37	#GARNER_GARNERNPC_TXT_000007#	1	19	13	74100,156300	74100,156300	270	#BIRTH_BIRTH_CONF_LUA_000002#	8	0	r_talk33	0
38	#GARNER_GARNERNPC_TXT_000008#	1	26	0	69761,154269	69761,154269	309	#BIRTH_BIRTH_CONF_LUA_000002#	8	0	r_talk34	0
39	#MISSCRIPT_NPCDEFINE_LUA_000027#	1	19	2	75450,151200	75450,151200	180	#BIRTH_BIRTH_CONF_LUA_000002#	8	0	r_talk35	0
40	#GARNER_GARNERNPC_TXT_000009#	1	416	0	74171,155325	74171,155325	270	#BIRTH_BIRTH_CONF_LUA_000002#	8	0	r_talk36	0
41	#MISSCRIPT_NPCDEFINE_LUA_000029#	1	5	0	70657,146515	70657,146515	85	#BIRTH_BIRTH_CONF_LUA_000002#	8	0	r_talk37	0
42	#MISSCRIPT_NPCDEFINE_LUA_000030#	1	19	12	72500,155100	72500,155100	135	#BIRTH_BIRTH_CONF_LUA_000002#	8	0	r_talk38	0
43	#GARNER_GARNERNPC_TXT_000010#	1	418	7	74364,158606	74364,158606	264	#BIRTH_BIRTH_CONF_LUA_000002#	8	0	GoToWhere	0
44	#MISSCRIPT_NPCDEFINE_LUA_000031#	1	413	0	102072,127825	102072,127825	-89	#BIRTH_BIRTH_CONF_LUA_000027#	10	0	r_talk39	0
45	#GARNER_GARNERNPC_TXT_000011#	1	417	0	80800,152100	80800,152100	180	#BIRTH_BIRTH_CONF_LUA_000002#	8	0	r_talk40	0
46	#GARNER_GARNERNPC_TXT_000012#	1	417	0	65323,150512	65323,150512	174	#BIRTH_BIRTH_CONF_LUA_000002#	8	0	r_talk41	0
47	#MISSCRIPT_MISSIONSCRIPT02_LUA_001557#	1	11	0	65146,158595	65146,158595	174	#BIRTH_BIRTH_CONF_LUA_000002#	8	0	r_talk42	0
48	#MISSCRIPT_NPCDEFINE_LUA_000035#	1	12	0	71187,141438	71187,141438	189	#BIRTH_BIRTH_CONF_LUA_000002#	8	0	r_talk43	0
49	#MISSCRIPT_NPCDEFINE_LUA_000036#	1	12	0	71536,141462	71536,141462	189	#BIRTH_BIRTH_CONF_LUA_000002#	8	0	r_talk44	0
50	#GARNER_GARNERNPC_TXT_000013#	1	415	0	66976,155428	66976,155428	159	#BIRTH_BIRTH_CONF_LUA_000002#	8	0	r_talk45	0
51	#MISSCRIPT_NPCDEFINE_LUA_000037#	1	410	0	99475,123473	99475,123473	144	#BIRTH_BIRTH_CONF_LUA_000028#	12	0	r_talk46	0
53	#GARNER_GARNERNPC_TXT_000014#	1	11	3	221082,289340	221082,289340	264	#BIRTH_BIRTH_CONF_LUA_000001#	1	0	r_talk87	0
54	#MISSCRIPT_MISSIONSCRIPT01_LUA_000185#	1	12	0	206504,273272	206504,273272	279	#RESOURCE_AREASET_TXT_000002#	3	0	r_talk88	0
55	#GARNER_GARNERNPC_TXT_000015#	1	423	7	62523,210440	62523,210440	84	#BIRTH_BIRTH_CONF_LUA_000006#	54	0	transmittal	0
56	#GARNER_GARNERNPC_TXT_000016#	1	418	7	101849,297598	101849,297598	264	#BIRTH_BIRTH_CONF_LUA_000007#	53	0	transmittal	0
57	#GARNER_GARNERNPC_TXT_000017#	1	419	3	63024,209136	63024,209136	179	#BIRTH_BIRTH_CONF_LUA_000006#	54	0	r_talk92	0
58	#GARNER_GARNERNPC_TXT_000018#	1	407	3	100473,297362	100473,297362	-4	#BIRTH_BIRTH_CONF_LUA_000007#	53	0	r_talk93	0
59	#MISSCRIPT_NPCDEFINE_LUA_000040#	1	429	0	229090,249599	229090,249599	219	#RESOURCE_AREASET_TXT_000002#	3	0	r_talk94	0
60	#MISSCRIPT_NPCDEFINE_LUA_000041#	1	10	0	185822,258524	185822,258524	24	#RESOURCE_AREASET_TXT_000002#	3	0	r_talk96	0
61	#MISSCRIPT_NPCDEFINE_LUA_000042#	1	421	0	189434,279865	189434,279865	84	#BIRTH_BIRTH_CONF_LUA_000008#	55	0	r_talk97	0
62	#MISSCRIPT_NPCDEFINE_LUA_000043#	1	418	0	197396,245713	197396,245713	144	#RESOURCE_AREASET_TXT_000002#	3	0	r_talk98	0
63	#MISSCRIPT_NPCDEFINE_LUA_000044#	1	423	0	196356,249252	196356,249252	144	#RESOURCE_AREASET_TXT_000002#	3	0	r_talk101	0
64	#MISSCRIPT_NPCDEFINE_LUA_000045#	1	408	0	150792,310556	150792,310556	114	#BIRTH_BIRTH_CONF_LUA_000009#	58	0	r_talk102	0
65	#MISSCRIPT_NPCDEFINE_LUA_000046#	1	403	0	163571,260785	163571,260785	204	#RESOURCE_AREASET_TXT_000002#	3	0	r_talk103	0
66	#MISSCRIPT_NPCDEFINE_LUA_000047#	1	13	0	214478,255237	214478,255237	204	#RESOURCE_AREASET_TXT_000002#	3	0	r_talk104	0
67	#MISSCRIPT_NPCDEFINE_LUA_000048#	1	19	0	113652,277829	113652,277829	129	#BIRTH_BIRTH_CONF_LUA_000010#	61	0	r_talk105	0
68	#MISSCRIPT_NPCDEFINE_LUA_000049#	1	404	0	152621,308970	152621,308970	309	#BIRTH_BIRTH_CONF_LUA_000009#	58	0	r_talk107	0
69	#MISSCRIPT_NPCDEFINE_LUA_000050#	1	420	0	52923,245873	52923,245873	301	#BIRTH_BIRTH_CONF_LUA_000011#	63	0	r_talk108	0
70	#GARNER_GARNERNPC_TXT_000019#	1	410	0	228100,283000	228100,283000	264	#BIRTH_BIRTH_CONF_LUA_000001#	1	0	r_talk109	0
71	#GARNER_GARNERNPC_TXT_000020#	1	410	0	228100,283100	228100,283100	264	#BIRTH_BIRTH_CONF_LUA_000001#	1	0	r_talk109	0
72	#GARNER_GARNERNPC_TXT_000021#	1	410	0	228100,283200	228100,283200	264	#BIRTH_BIRTH_CONF_LUA_000001#	1	0	r_talk109	0
73	#GARNER_GARNERNPC_TXT_000022#	1	410	0	228100,283300	228100,283300	264	#BIRTH_BIRTH_CONF_LUA_000001#	1	0	r_talk109	0
74	#GARNER_GARNERNPC_TXT_000023#	1	410	0	228100,283400	228100,283400	264	#BIRTH_BIRTH_CONF_LUA_000001#	1	0	r_talk109	0
75	#GARNER_GARNERNPC_TXT_000024#	1	409	0	228200,283000	228200,283000	264	#BIRTH_BIRTH_CONF_LUA_000001#	1	0	r_talk109	0
76	#GARNER_GARNERNPC_TXT_000025#	1	409	0	228200,283100	228200,283100	264	#BIRTH_BIRTH_CONF_LUA_000001#	1	0	r_talk109	0
77	#GARNER_GARNERNPC_TXT_000026#	1	409	0	228200,283200	228200,283200	264	#BIRTH_BIRTH_CONF_LUA_000001#	1	0	r_talk109	0
78	#GARNER_GARNERNPC_TXT_000027#	1	409	0	228200,283300	228200,283300	264	#BIRTH_BIRTH_CONF_LUA_000001#	1	0	r_talk109	0
79	#GARNER_GARNERNPC_TXT_000028#	1	409	0	228200,283400	228200,283400	264	#BIRTH_BIRTH_CONF_LUA_000001#	1	0	r_talk109	0
80	#GARNER_GARNERNPC_TXT_000029#	1	428	0	226965,282267	226965,282267	88	#BIRTH_BIRTH_CONF_LUA_000001#	1	0	k_talk001	0
81	#GARNER_GARNERNPC_TXT_000030#	1	428	0	226970,283372	226970,283372	88	#BIRTH_BIRTH_CONF_LUA_000001#	1	0	k_talk001	0
82	#GARNER_GARNERNPC_TXT_000031#	1	428	0	220257,282909	220257,282909	0	#BIRTH_BIRTH_CONF_LUA_000001#	1	0	k_talk001	0
83	#GARNER_GARNERNPC_TXT_000032#	1	428	0	219678,282934	219678,282934	0	#BIRTH_BIRTH_CONF_LUA_000001#	1	0	k_talk001	0
84	#GARNER_GARNERNPC_TXT_000033#	1	434	0	224215,283223	224215,283223	-79	#BIRTH_BIRTH_CONF_LUA_000001#	1	0	k_talk001	0
85	#GARNER_GARNERNPC_TXT_000034#	1	434	0	224249,283735	224249,283735	-94	#BIRTH_BIRTH_CONF_LUA_000001#	1	0	k_talk001	0
86	#GARNER_GARNERNPC_TXT_000035#	1	418	9	224774,285824	224774,285824	-45	#BIRTH_BIRTH_CONF_LUA_000001#	1	0	r_talk150	0
87	#MISSCRIPT_NPCDEFINE_LUA_000052#	1	10	5	225538,280188	225538,280188	174	#BIRTH_BIRTH_CONF_LUA_000001#	1	0	r_talk151	0
88	#MISSCRIPT_NPCDEFINE_LUA_000053#	1	441	9	224367,282625	224367,282625	267	#BIRTH_BIRTH_CONF_LUA_000001#	1	0	r_talk152	0
89	#MISSCRIPT_NPCDEFINE_LUA_000054#	1	30	0	153500,307147	153500,307147	309	#BIRTH_BIRTH_CONF_LUA_000009#	58	0	r_talk157	0
90	#MISSCRIPT_NPCDEFINE_LUA_000055#	1	28	11	151046,308908	151046,308908	144	#BIRTH_BIRTH_CONF_LUA_000009#	58	0	r_talk158	0
91	#MISSCRIPT_NPCDEFINE_LUA_000056#	1	405	0	111335,277922	111335,277922	74	#BIRTH_BIRTH_CONF_LUA_000010#	61	0	r_talk129	0
92	#MISSCRIPT_NPCDEFINE_LUA_000057#	1	15	0	113171,277724	113171,277724	270	#BIRTH_BIRTH_CONF_LUA_000010#	61	0	r_talk146	0
93	#MISSCRIPT_NPCDEFINE_LUA_000058#	1	17	11	112316,276629	112316,276629	-119	#BIRTH_BIRTH_CONF_LUA_000010#	61	0	r_talk159	0
94	#GARNER_GARNERNPC_TXT_000036#	1	11	7	151923,307654	151923,307654	144	#BIRTH_BIRTH_CONF_LUA_000009#	58	0	transmittal	0
95	#GARNER_GARNERNPC_TXT_000037#	1	11	7	112139,278183	112139,278183	354	#BIRTH_BIRTH_CONF_LUA_000010#	61	0	transmittal	0
96	#GARNER_GARNERNPC_TXT_000038#	1	11	7	191216,280233	191216,280233	223	#BIRTH_BIRTH_CONF_LUA_000008#	55	0	transmittal	0
97	#GARNER_GARNERNPC_TXT_000039#	1	11	7	54307,243775	54307,243775	-90	#BIRTH_BIRTH_CONF_LUA_000011#	63	0	transmittal	0
98	#MISSCRIPT_MISSIONSCRIPT02_LUA_000060#	1	12	0	190914,282038	190914,282038	249	#BIRTH_BIRTH_CONF_LUA_000008#	55	0	r_talk160	0
99	#MISSCRIPT_NPCDEFINE_LUA_000059#	1	414	0	189378,281278	189378,281278	219	#BIRTH_BIRTH_CONF_LUA_000008#	55	0	r_talk147	0
100	#MISSCRIPT_NPCDEFINE_LUA_000060#	1	444	0	191452,280657	191452,280657	249	#BIRTH_BIRTH_CONF_LUA_000008#	55	0	r_talk122	0
101	#MISSCRIPT_NPCDEFINE_LUA_000061#	1	19	11	188351,280526	188351,280526	174	#BIRTH_BIRTH_CONF_LUA_000008#	55	0	r_talk162	0
102	#MISSCRIPT_NPCDEFINE_LUA_000062#	1	30	0	51543,243709	51543,243709	279	#BIRTH_BIRTH_CONF_LUA_000011#	63	0	r_talk163	0
103	#MISSCRIPT_NPCDEFINE_LUA_000063#	1	404	0	58800,238875	58800,238875	189	#BIRTH_BIRTH_CONF_LUA_000011#	63	0	r_talk164	0
104	#MISSCRIPT_NPCDEFINE_LUA_000064#	1	442	11	52675,243215	52675,243215	54	#BIRTH_BIRTH_CONF_LUA_000011#	63	0	r_talk165	0
105	#GARNER_GARNERNPC_TXT_000040#	1	451	9	325374,330115	325374,330115	219	#BIRTH_BIRTH_CONF_LUA_000018#	32	0	r_talk178	0
106	#GARNER_GARNERNPC_TXT_000041#	1	451	9	229932,112280	229932,112280	174	#BIRTH_BIRTH_CONF_LUA_000019#	36	0	r_talk179	0
107	#GARNER_GARNERNPC_TXT_000042#	1	451	9	362035,74307	362035,74307	204	#BIRTH_BIRTH_CONF_LUA_000020#	35	0	r_talk180	0
108	#MISSCRIPT_NPCDEFINE_LUA_000151#	1	451	9	309785,353060	309785,353060	25	#RESOURCE_AREASET_TXT_000042#	71	0	r_talk181	0
109	#MISSCRIPT_NPCDEFINE_LUA_000145#	1	451	9	149778,170712	149778,170712	0	#RESOURCE_AREASET_TXT_000043#	72	0	r_talk182	0
110	#MISSCRIPT_NPCDEFINE_LUA_000149#	1	451	9	204187,135503	204187,135503	0	#RESOURCE_AREASET_TXT_000044#	73	0	r_talk183	0
111	#MISSCRIPT_NPCDEFINE_LUA_000148#	1	451	9	315379,67498	315379,67498	25	#RESOURCE_AREASET_TXT_000045#	74	0	r_talk184	0
112	#GARNER_GARNERNPC_TXT_000043#	1	449	4	325401,327828	325401,327828	160	#BIRTH_BIRTH_CONF_LUA_000018#	32	0	r_talk185	0
113	#GARNER_GARNERNPC_TXT_000044#	1	449	4	227910,111264	227910,111264	144	#BIRTH_BIRTH_CONF_LUA_000019#	36	0	r_talk186	0
114	#GARNER_GARNERNPC_TXT_000045#	1	449	4	359506,73919	359506,73919	144	#BIRTH_BIRTH_CONF_LUA_000020#	35	0	r_talk187	0
115	#GARNER_GARNERNPC_TXT_000046#	1	445	9	105677,132418	105663,131195	99	#BIRTH_BIRTH_CONF_LUA_000027#	10	0	r_talk207	0
116	#GARNER_GARNERNPC_TXT_000047#	1	445	5	106236,129149	106236,129149	264	#BIRTH_BIRTH_CONF_LUA_000027#	10	0	r_talk210	0
117	#GARNER_GARNERNPC_TXT_000048#	1	429	6	222422,288373	222422,288373	290	#BIRTH_BIRTH_CONF_LUA_000001#	1	0	r_talk211	0
118	#GARNER_GARNERNPC_TXT_000049#	1	12	6	220133,281810	220133,281810	170	#BIRTH_BIRTH_CONF_LUA_000001#	1	0	r_talk212	0
119	#GARNER_GARNERNPC_TXT_000050#	1	443	6	219402,277468	219402,277468	159	#BIRTH_BIRTH_CONF_LUA_000001#	1	0	r_talk213	0
120	#MISSCRIPT_NPCDEFINE_LUA_000138#	1	440	9	190742,279862	190742,279862	219	#BIRTH_BIRTH_CONF_LUA_000008#	55	0	r_talk214	0
121	#GARNER_GARNERNPC_TXT_000051#	1	459	9	103877,128848	103877,128848	294	#BIRTH_BIRTH_CONF_LUA_000027#	10	0	r_talk215	0
122	#MISSCRIPT_NPCDEFINE_LUA_000139#	1	459	9	152228,309599	152228,309599	294	#BIRTH_BIRTH_CONF_LUA_000009#	58	0	r_talk216	0
123	#GARNER_GARNERNPC_TXT_000052#	1	11	7	224868,285375	224868,285375	269	#BIRTH_BIRTH_CONF_LUA_000001#	1	0	island	0
124	#GARNER_GARNERNPC_TXT_000053#	1	11	7	326626,326695	326626,326695	174	#BIRTH_BIRTH_CONF_LUA_000018#	32	0	island	0
125	#GARNER_GARNERNPC_TXT_000054#	1	11	7	227257,111622	227257,111622	144	#BIRTH_BIRTH_CONF_LUA_000019#	36	0	island	0
126	#GARNER_GARNERNPC_TXT_000055#	1	11	7	361161,72801	361161,72801	264	#BIRTH_BIRTH_CONF_LUA_000020#	35	0	island	0
127	#GARNER_GARNERNPC_TXT_000056#	1	450	4	206177,254366	206177,254366	211	#RESOURCE_AREASET_TXT_000002#	3	0	r_talk221	0
128	#GARNER_GARNERNPC_TXT_000057#	1	30	4	226531,270475	226531,270475	180	#BIRTH_BIRTH_CONF_LUA_000001#	1	0	r_talk222	0
129	#GARNER_GARNERNPC_TXT_000058#	1	19	0	64672,208875	64672,208875	-95	#BIRTH_BIRTH_CONF_LUA_000006#	54	0	r_talk228	0
130	#GARNER_GARNERNPC_TXT_000059#	1	452	0	62275,210610	62275,210610	0	#BIRTH_BIRTH_CONF_LUA_000006#	54	0	r_talk229	0
131	#GARNER_GARNERNPC_TXT_000060#	1	401	0	62830,209575	62830,209575	94	#BIRTH_BIRTH_CONF_LUA_000006#	54	0	r_talk230	0
132	#GARNER_GARNERNPC_TXT_000061#	1	440	0	62625,210025	62625,210025	99	#BIRTH_BIRTH_CONF_LUA_000006#	54	0	r_talk231	0
133	#GARNER_GARNERNPC_TXT_000062#	1	19	13	221525,281325	221525,281325	10	#BIRTH_BIRTH_CONF_LUA_000001#	1	0	r_talk234	0
134	#GARNER_GARNERNPC_TXT_000063#	1	19	13	188975,280475	188975,280475	240	#BIRTH_BIRTH_CONF_LUA_000008#	55	0	r_talk235	0
135	#GARNER_GARNERNPC_TXT_000064#	1	19	13	99675,296937	99675,296937	36	#BIRTH_BIRTH_CONF_LUA_000007#	53	0	r_talk236	0
136	#GARNER_GARNERNPC_TXT_000065#	1	19	13	111175,276129	111175,276129	129	#BIRTH_BIRTH_CONF_LUA_000010#	61	0	r_talk237	0
137	#GARNER_GARNERNPC_TXT_000066#	1	19	13	73108,156758	73108,156758	91	#BIRTH_BIRTH_CONF_LUA_000002#	8	0	r_talk238	0
138	#GARNER_GARNERNPC_TXT_000067#	1	19	13	63500,209100	63500,209100	180	#BIRTH_BIRTH_CONF_LUA_000006#	54	0	r_talk239	0
139	#GARNER_GARNERNPC_TXT_000068#	1	11	0	223145,271519	223145,271519	264	#BIRTH_BIRTH_CONF_LUA_000001#	1	0	r_talk242	0
140	#GARNER_GARNERNPC_TXT_000069#	1	459	9	91200,200000	91200,200000	250	#RESOURCE_AREASET_TXT_000006#	7	0	r_talk243	0
141	#GARNER_GARNERNPC_TXT_000070#	1	459	9	187962,296528	187962,296528	205	#RESOURCE_AREASET_TXT_000002#	3	0	r_talk244	0
142	#GARNER_GARNERNPC_TXT_000071#	1	724	0	225221,277935	225221,277935	360	#BIRTH_BIRTH_CONF_LUA_000001#	1	0	r_talk252	0
143	#GARNER_GARNERNPC_TXT_000072#	1	260	0	222275,276827	222275,276827	180	#BIRTH_BIRTH_CONF_LUA_000001#	1	0	mmm_talk01	0
144	#GARNER_GARNERNPC_TXT_000073#	1	18	0	215800,279200	215800,279200	351	#BIRTH_BIRTH_CONF_LUA_000001#	1	1	el_talk03	1
146	#RESOURCE_CHARACTERINFO_TXT_000433#	1	867	0	206400,273500	206400,273500	135	#RESOURCE_AREASET_TXT_000002#	3	0	b_talk25	0
147	#RESOURCE_CHARACTERINFO_TXT_000433#	1	867	0	76200,151800	76200,151800	135	#BIRTH_BIRTH_CONF_LUA_000002#	8	0	b_talk25	0
148	#GARNER_GARNERNPC_TXT_000074#	1	882	0	75900,147400	75900,147400	0	#BIRTH_BIRTH_CONF_LUA_000002#	8	0	b_talk26	0
149	#GARNER_GARNERNPC_TXT_000075#	1	459	4	226100,271700	226100,271700	0	#BIRTH_BIRTH_CONF_LUA_000001#	1	0	leo_talkaa	0
151	#DARKBLUE_DARKBLUENPC_TXT_000043#	1	25	0	206400,273700	206400,273700	330	#RESOURCE_AREASET_TXT_000002#	3	0	max_talka2	0
152	#DARKBLUE_DARKBLUENPC_TXT_000043#	1	25	0	76100,151500	76100,151500	150	#BIRTH_BIRTH_CONF_LUA_000002#	8	0	max_talka2	0
154	#GARNER_GARNERNPC_TXT_000076#	1	221	0	214138,270471	214138,270471	175	#RESOURCE_AREASET_TXT_000002#	3	0	ync_talk	0
156	#GARNER_GARNERNPC_TXT_000077#	1	421	0	222900,278200	222900,278200	180	#BIRTH_BIRTH_CONF_LUA_000001#	1	0	el_talk15	0
158	#GARNER_GARNERNPC_TXT_000078#	1	449	0	224087,277032	224087,277032	180	#BIRTH_BIRTH_CONF_LUA_000001#	1	0	dina_talk08	0
163	#GARNER_GARNERNPC_TXT_000079#	1	30	13	74100,150500	74100,150500	-85	#BIRTH_BIRTH_CONF_LUA_000002#	8	0	aimina_talk01	0
168	#CALCULATE_FUNCTIONS_LUA_000689#	1	1140	0	218400,277600	218400,277600	180	#BIRTH_BIRTH_CONF_LUA_000001#	1	0	e_talk001	0
169	#MISSCRIPT_MISSIONSCRIPT05_LUA_001026#	1	1141	0	221800,278300	221800,278301	180	#BIRTH_BIRTH_CONF_LUA_000001#	1	0	e_talk003	0
170	#CALCULATE_FUNCTIONS_LUA_000701#	1	1142	0	221600,277100	221600,277101	90	#BIRTH_BIRTH_CONF_LUA_000001#	1	0	Mbox_talk01	0
171	#GARNER_GARNERNPC_TXT_000080#	1	29	3	62400,210700	62400,210700	84	#BIRTH_BIRTH_CONF_LUA_000006#	54	0	r_talk267	0
172	#GARNER_GARNERNPC_TXT_000081#	1	29	3	101800,297800	101800,297800	264	#BIRTH_BIRTH_CONF_LUA_000007#	53	0	r_talk268	0
173	#GARNER_GARNERNPC_TXT_000082#	1	29	3	152100,307500	152100,307500	144	#BIRTH_BIRTH_CONF_LUA_000009#	58	0	r_talk269	0
174	#GARNER_GARNERNPC_TXT_000083#	1	29	3	111800,278100	111800,278100	354	#BIRTH_BIRTH_CONF_LUA_000010#	61	0	r_talk270	0
175	#GARNER_GARNERNPC_TXT_000084#	1	29	3	191400,280500	191400,280500	223	#BIRTH_BIRTH_CONF_LUA_000008#	55	0	r_talk271	0
176	#GARNER_GARNERNPC_TXT_000085#	1	29	3	54300,243400	54300,243400	-90	#BIRTH_BIRTH_CONF_LUA_000011#	63	0	r_talk272	0
177	#GARNER_GARNERNPC_TXT_000086#	1	29	3	327000,326600	327000,326600	174	#BIRTH_BIRTH_CONF_LUA_000018#	32	0	r_talk273	0
178	#GARNER_GARNERNPC_TXT_000087#	1	29	3	227400,111500	227400,111500	144	#BIRTH_BIRTH_CONF_LUA_000019#	36	0	r_talk274	0
179	#GARNER_GARNERNPC_TXT_000088#	1	29	3	361200,73000	361200,73000	264	#BIRTH_BIRTH_CONF_LUA_000020#	35	0	r_talk275	0
180	#RESOURCE_CHARACTERINFO_TXT_000711#	1	1174	0	223250,280100	223250,280100	180	#BIRTH_BIRTH_CONF_LUA_000001#	1	0	r_talk288	0
181	#RESOURCE_CHARACTERINFO_TXT_000708#	1	1170	0	219000,277500	219000,277500	180	#BIRTH_BIRTH_CONF_LUA_000001#	1	0	WaBao_MBLSlevi	0
186	#RESOURCE_CHARACTERINFO_TXT_000710#	1	1173	0	226100,273800	226100,273800	0	#BIRTH_BIRTH_CONF_LUA_000001#	1	0	XingHan_talk	0
187	Monk–Fu Shen	1	1147	0	90800,107300	90800,107300	180	Argent city	1	0	FuShen_talk	0
191	#GARNER_GARNERNPC_TXT_000089#	1	407	0	219200,276500	219200,276500	90	#BIRTH_BIRTH_CONF_LUA_000001#	1	0	mian_talk02	0
192	#GARNER_GARNERNPC_TXT_000090#	1	407	0	219300,274100	219300,274100	90	#BIRTH_BIRTH_CONF_LUA_000001#	1	0	mian_talk03	0
198	#GARNER_GARNERNPC_TXT_000092#	1	1074	12	220200,277600	220200,277600	270	#BIRTH_BIRTH_CONF_LUA_000001#	1	0	bai_talk	0
199	Titan	1	1136	0	223900,280800	223900,280800	180	Argent City	1	0	duihuan_talk02	0
182	Arena Enlist Administrator	1	424	4	220100,290000	220100,290000	30	白银城	1	0	arena_talk01	0
183	Arena Teleporter	1	442	0	220300,290200	220300,290200	0	白银城	1	0	JingJi_talk02	0
184	Arena Commissioner - Eden	1	450	4	220100,289400	220100,289400	90	白银城	1	0	pk_talk256	0
185	Arena Exchanger	1	449	4	220100,289700	220100,289700	180	白银城	1	0	JingJi_talk03	0
197	ZZ	1	1140	0	229200,250800	229200,250800	180	白银城	1	0	sd_xiaozz	0
200	Xmas Granny	1	18	2	193200,244300	193200,244300	180	白银城	1	0	sd_laonainai	0
